…
The “Text Mining With R” book uses the janeaustenr package, which is not really
necessary, as we can represent the full workflow from downloading
the books to visualization, which can be used with books from other authors as well.

Most common words associated with the NRC emotion “joy”

The code below simply counts the most common words in Persuasion that correspond to the joy emotion in the NRC sentiment lexicon

austen_tidy_texts %>%
  filter(title == "Persuasion") %>% # only selecting Persuasion from the rest of the books
  inner_join(nrc_joy) %>% # combining two tables together (see data wrangling cheat sheet)
  count(word, sort = TRUE) # counting the words

## # A tibble: 258 x 2
##    word        n
##    <chr>   <int>
##  1 good      187
##  2 young      84
##  3 found      83
##  4 friend     77
##  5 present    65
##  6 happy      64
##  7 hope       53
##  8 deal       45
##  9 love       42
## 10 spirits    41
## # ... with 248 more rows
…
